{
  "continueGame": "Kontynuuj grę",
  "newGame": "Nowa gra",
  "changeLanguage": "Zmiana języka",
  "exitGame": "Wyjście z gry",
  "snakeControl": "Sterowanie:",
  "pauseMenu": "Pauza podczas gry:\n- P\n",
  "gameDesc1": "Za każde zebrane jedzenie wąż będzie rósł\n i poruszał się coraz szybciej.",
  "gameDesc2": "Można przerwać aktualną rozgrywkę pauzując grę\n i wybierając opcję \"powrót do menu\", stan gry\n zostanie zapisany automatycznie i będzie można go\n kontynuować z menu.\n\nNa mapie znajduje się przeciwnik w postaci nietoperza, będzie on zabierał graczowi jego pożywienie. Jeżeli gracz uderzy nietoperza - przegra.",
  "resetHighscoreAsk": "Czy chcesz zrestować swój najlepszy wynik?",
  "resetHighscoreYes": "Tak",
  "resetHighscoreNo": "Nie",
  "gameVersion": "Wersja gry: 1.4",
  "backToMenu": "Powrót do menu",
  "youWin": "Wygrałeś",
  "youLose": "Przegrałeś",
  "resetGame": "Restart gry",
  
  "newKeysAddedInVersion1.4": "New keys added in version 1.4 - don't need translate!",
  "authorText": "Autor:",
  "settingsButton": "Ustawienia",
  "changesButton": "Lista zmian",
  "roadmapButton": "Roadmap",
  "multiplayerButton": "Gra wieloosobowa",
  "aboutButton": "O grze",
  "settingsMoveUp": "W górę",
  "settingsMoveDown": "W dół",
  "settingsMoveLeft": "W lewo",
  "settingsMoveRight": "W prawo",
  "settingsGameLanguage": "Język gry:",
  "settingsAudioVolume": "Głośność gry:"
}